[
{
    "id": 210,
    "uaqs_link": "https://en.wikipedia.org/wiki/Flat_Earth#Modern_period",
    "uaqs_link_title": "Background to skeptical astronomy"
},
{
    "id": 410,
    "uaqs_link": "https://brand.arizona.edu/",
    "uaqs_link_title": "The University of Arizona Brand"
},
{
    "id": 510,
    "uaqs_link": "http://www.arizona.edu/button-salmon",
    "uaqs_link_title": "“Button” Salmon"
}
]
