[
  {"id":90,
    "uaqs_summary_short" : "More paintings with musical connections",
    "uaqs_photo" : "The_Hay_Wain_by_Hieronymus_Bosch.jpg",
    "uaqs_html" : "Musicians appear in prominent positions in other works by the same artist, notably in the middle of the central panel of the Hay Wain Triptych. The well-known Estonian vocal group Heinavanker (which has visited Tucson on two occasions) takes its name from this painting.",
    "uaqs_link": "https://en.wikipedia.org/wiki/The_Haywain_Triptych",
    "uaqs_link_title": "The Haywain Triptych",
    "view_mode" : "default"
  }
]